-------------------- Auto-Git Log --------------------
		Sat Jan 30 2021 20:04:21 GMT-0500 (Eastern Standard Time)
------------------------------------------------------

Modified files:


Created files:
* .autogit/logs/log-30-0-2021-19-34-16.txt


Deleted files:


Renamed files:
