-------------------- Auto-Git Log --------------------
		Tue Jan 26 2021 21:09:02 GMT-0500 (Eastern Standard Time)
------------------------------------------------------

Modified files:


Created files:
* .autogit/logs/log-26-0-2021-20-38-55.txt


Deleted files:


Renamed files:
