-------------------- Auto-Git Log --------------------
		Fri Jan 29 2021 22:59:41 GMT-0500 (Eastern Standard Time)
------------------------------------------------------

Modified files:


Created files:
* .autogit/logs/log-29-0-2021-22-29-33.txt


Deleted files:


Renamed files:
