-------------------- Auto-Git Log --------------------
		Tue Jan 26 2021 16:37:45 GMT-0500 (Eastern Standard Time)
------------------------------------------------------

Modified files:


Created files:
* .autogit/logs/log-26-0-2021-7-35-34.txt


Deleted files:


Renamed files:
