-------------------- Auto-Git Log --------------------
		Sat Jan 30 2021 17:03:40 GMT-0500 (Eastern Standard Time)
------------------------------------------------------

Modified files:


Created files:
* .autogit/logs/log-30-0-2021-16-33-34.txt


Deleted files:


Renamed files:
