-------------------- Auto-Git Log --------------------
		Mon Feb 01 2021 17:15:49 GMT-0500 (Eastern Standard Time)
------------------------------------------------------

Modified files:


Created files:
* .autogit/logs/log-1-1-2021-16-45-43.txt


Deleted files:


Renamed files:
