-------------------- Auto-Git Log --------------------
		Mon Jan 25 2021 21:03:14 GMT-0500 (Eastern Standard Time)
------------------------------------------------------

Modified files:


Created files:
* .autogit/logs/log-25-0-2021-20-33-8.txt


Deleted files:


Renamed files:
