-------------------- Auto-Git Log --------------------
		Mon Jan 25 2021 17:02:17 GMT-0500 (Eastern Standard Time)
------------------------------------------------------

Modified files:


Created files:
* .autogit/logs/log-25-0-2021-16-32-11.txt


Deleted files:


Renamed files:
