-------------------- Auto-Git Log --------------------
		Wed Jan 27 2021 12:14:32 GMT-0500 (Eastern Standard Time)
------------------------------------------------------

Modified files:


Created files:
* .autogit/logs/log-27-0-2021-11-44-17.txt


Deleted files:


Renamed files:
