-------------------- Auto-Git Log --------------------
		Sun Jan 31 2021 17:39:28 GMT-0500 (Eastern Standard Time)
------------------------------------------------------

Modified files:


Created files:
* .autogit/logs/log-31-0-2021-17-9-18.txt


Deleted files:


Renamed files:
