-------------------- Auto-Git Log --------------------
		Sat Jan 30 2021 21:34:39 GMT-0500 (Eastern Standard Time)
------------------------------------------------------

Modified files:


Created files:
* .autogit/logs/log-30-0-2021-21-4-31.txt


Deleted files:


Renamed files:
