-------------------- Auto-Git Log --------------------
		Thu Jan 28 2021 01:48:54 GMT-0500 (Eastern Standard Time)
------------------------------------------------------

Modified files:


Created files:
* .autogit/logs/log-28-0-2021-1-18-41.txt


Deleted files:


Renamed files:
