-------------------- Auto-Git Log --------------------
		Mon Feb 01 2021 13:13:56 GMT-0500 (Eastern Standard Time)
------------------------------------------------------

Modified files:


Created files:
* .autogit/logs/log-1-1-2021-12-43-46.txt


Deleted files:


Renamed files:
